{
  "project_info": {
    "project_number": "1042688700358",
    "firebase_url": "https://groupware-ba01d.firebaseio.com",
    "project_id": "groupware-ba01d",
    "storage_bucket": "groupware-ba01d.appspot.com"
  },
  "client": [
    {
      "client_info": {
        "mobilesdk_app_id": "1:1042688700358:android:4ab0593361022cdba0ccc7",
        "android_client_info": {
          "package_name": "com.gpw.meg"
        }
      },
      "oauth_client": [
        {
          "client_id": "1042688700358-ba7b1mm235dk72vg38hnbrqrjat739f5.apps.googleusercontent.com",
          "client_type": 3
        }
      ],
      "api_key": [
        {
          "current_key": "AIzaSyCwwdVw4AuAgjk5dhyzSvTVmzOgh9MoRN0"
        }
      ],
      "services": {
        "appinvite_service": {
          "other_platform_oauth_client": [
            {
              "client_id": "1042688700358-ba7b1mm235dk72vg38hnbrqrjat739f5.apps.googleusercontent.com",
              "client_type": 3
            },
            {
              "client_id": "1042688700358-gcp49mf70ctgjgeea6vkrmt21o69fcem.apps.googleusercontent.com",
              "client_type": 2,
              "ios_info": {
                "bundle_id": "com.phacsin.iexist.iosApp"
              }
            }
          ]
        }
      }
    },
    {
      "client_info": {
        "mobilesdk_app_id": "1:1042688700358:android:17d220f055d55804a0ccc7",
        "android_client_info": {
          "package_name": "com.phacsin.iexist"
        }
      },
      "oauth_client": [
        {
          "client_id": "1042688700358-ba7b1mm235dk72vg38hnbrqrjat739f5.apps.googleusercontent.com",
          "client_type": 3
        }
      ],
      "api_key": [
        {
          "current_key": "AIzaSyCwwdVw4AuAgjk5dhyzSvTVmzOgh9MoRN0"
        }
      ],
      "services": {
        "appinvite_service": {
          "other_platform_oauth_client": [
            {
              "client_id": "1042688700358-ba7b1mm235dk72vg38hnbrqrjat739f5.apps.googleusercontent.com",
              "client_type": 3
            },
            {
              "client_id": "1042688700358-gcp49mf70ctgjgeea6vkrmt21o69fcem.apps.googleusercontent.com",
              "client_type": 2,
              "ios_info": {
                "bundle_id": "com.phacsin.iexist.iosApp"
              }
            }
          ]
        }
      }
    }
  ],
  "configuration_version": "1"
}